Assignment-03_Bukva
…
##Part 4 - Create a graph that shows average levels of monthly income by field of education, gender and job level (scale of 1-5, highest ranked employees are 5)

Again we make a prediction. This time we find average income when considering education field, gender, and job level. Then using the facet command we will plot sub-bar plots to see the data separated, yet still grouped together on the same page. Once doing so, we find that at the beginning and ending levels of jobs there is little deviation based on gender and education, yet in the middle ranges 3 & 4 we do see some variance due to gender and/or field of education.

at_sum2<-at%>%
  group_by(EducationField,Gender,JobLevel)%>%
  summarize(inc_avg=mean(MonthlyIncome))%>%
  arrange(-inc_avg)

at_sum2

## # A tibble: 58 x 4
## # Groups:   EducationField, Gender [12]
##    EducationField   Gender JobLevel inc_avg
##    <chr>            <chr>     <int>   <dbl>
##  1 Technical Degree Female        5  19744 
##  2 Other            Male          5  19443.
##  3 Human Resources  Male          5  19322 
##  4 Medical          Male          5  19251.
##  5 Technical Degree Male          5  19232 
##  6 Life Sciences    Male          5  19232.
##  7 Life Sciences    Female        5  19143 
##  8 Marketing        Female        5  19101.
##  9 Other            Female        5  19094 
## 10 Medical          Female        5  19032.
## #  with 48 more rows
…
